Warning: Permanently added '10.128.15.193' (ECDSA) to the list of known hosts.
Warning: Permanently added '10.128.15.194' (ECDSA) to the list of known hosts.
Warning: Permanently added '10.128.15.207' (ECDSA) to the list of known hosts.
Warning: Permanently added '10.128.15.208' (ECDSA) to the list of known hosts.
Warning: Permanently added '10.128.15.206' (ECDSA) to the list of known hosts.
Warning: Permanently added '10.128.15.209' (ECDSA) to the list of known hosts.
Warning: Permanently added '10.128.15.210' (ECDSA) to the list of known hosts.
Warning: Permanently added '10.128.15.214' (ECDSA) to the list of known hosts.
Warning: Permanently added '10.128.15.215' (ECDSA) to the list of known hosts.
Warning: Permanently added '10.128.15.213' (ECDSA) to the list of known hosts.
Warning: Permanently added '10.128.15.212' (ECDSA) to the list of known hosts.
Warning: Permanently added '10.128.15.211' (ECDSA) to the list of known hosts.
Warning: Permanently added '10.128.15.216' (ECDSA) to the list of known hosts.
Warning: Permanently added '10.128.15.218' (ECDSA) to the list of known hosts.
Warning: Permanently added '10.128.15.217' (ECDSA) to the list of known hosts.
